<?xml version="1.0" encoding="UTF-8"?>
<!--Generator: Apple Native CoreSVG 232.5-->
<!DOCTYPE svg
PUBLIC "-//W3C//DTD SVG 1.1//EN"
       "http://www.w3.org/Graphics/SVG/1.1/DTD/svg11.dtd">
<svg version="1.1" xmlns="http://www.w3.org/2000/svg" xmlns:xlink="http://www.w3.org/1999/xlink" width="36.9531" height="16.6113">
 <g>
  <rect height="16.6113" opacity="0" width="36.9531" x="0" y="0"/>
  <path d="M6.57227 16.6113L26.2207 16.6113C28.457 16.6113 30.1562 16.377 31.3672 15.166C32.5684 13.9648 32.793 12.2852 32.793 10.0488L32.793 6.57227C32.793 4.33594 32.5684 2.65625 31.3672 1.44531C30.1465 0.244141 28.457 0 26.2207 0L6.50391 0C4.3457 0 2.64648 0.244141 1.43555 1.45508C0.224609 2.66602 0 4.3457 0 6.51367L0 10.0488C0 12.2852 0.214844 13.9648 1.42578 15.166C2.64648 16.377 4.33594 16.6113 6.57227 16.6113ZM6.23047 14.8828C4.81445 14.8828 3.4668 14.668 2.69531 13.8965C1.93359 13.1348 1.72852 11.8066 1.72852 10.3906L1.72852 6.29883C1.72852 4.82422 1.93359 3.47656 2.69531 2.71484C3.45703 1.93359 4.82422 1.73828 6.28906 1.73828L26.5625 1.73828C27.9785 1.73828 29.3262 1.95312 30.0977 2.71484C30.8594 3.48633 31.0645 4.81445 31.0645 6.23047L31.0645 10.3906C31.0645 11.8066 30.8594 13.1348 30.0977 13.8965C29.3262 14.6777 27.9785 14.8828 26.5625 14.8828ZM34.3457 11.4453C35.3125 11.3867 36.5918 10.1562 36.5918 8.31055C36.5918 6.46484 35.3125 5.23438 34.3457 5.17578Z" fill="#ffffff" fill-opacity="0.85"/>
  <path d="M5.70312 13.5254L20.4395 13.5254C21.4844 13.5254 22.0898 13.3691 22.4902 12.9688C22.8906 12.5684 23.0566 11.9531 23.0566 10.918L23.0566 5.70312C23.0566 4.6582 22.8906 4.05273 22.4902 3.65234C22.0898 3.25195 21.4648 3.0957 20.4395 3.0957L5.76172 3.0957C4.66797 3.0957 4.04297 3.25195 3.65234 3.64258C3.25195 4.04297 3.08594 4.67773 3.08594 5.76172L3.08594 10.918C3.08594 11.9629 3.25195 12.5684 3.65234 12.9688C4.05273 13.3594 4.67773 13.5254 5.70312 13.5254Z" fill="#32d74b"/>
 </g>
</svg>
