<?xml version="1.0" encoding="UTF-8"?>
<!--Generator: Apple Native CoreSVG 232.5-->
<!DOCTYPE svg
PUBLIC "-//W3C//DTD SVG 1.1//EN"
       "http://www.w3.org/Graphics/SVG/1.1/DTD/svg11.dtd">
<svg version="1.1" xmlns="http://www.w3.org/2000/svg" xmlns:xlink="http://www.w3.org/1999/xlink" width="25.8008" height="25.459">
 <g>
  <rect height="25.459" opacity="0" width="25.8008" x="0" y="0"/>
  <path d="M25.4395 12.7344C25.4395 19.6973 19.6777 25.459 12.7148 25.459C5.76172 25.459 0 19.6973 0 12.7344C0 5.78125 5.75195 0.0195312 12.7051 0.0195312C19.668 0.0195312 25.4395 5.78125 25.4395 12.7344ZM12.0215 5.18555C11.6504 5.18555 11.3672 5.40039 11.2891 5.79102L10.9082 7.37305C10.6445 7.46094 10.3906 7.56836 10.1562 7.68555L8.76953 6.81641C8.42773 6.62109 8.10547 6.66016 7.83203 6.92383L6.85547 7.88086C6.58203 8.16406 6.5625 8.51562 6.76758 8.83789L7.61719 10.2246C7.5293 10.4395 7.41211 10.6934 7.32422 10.9668L5.75195 11.3477C5.36133 11.4355 5.15625 11.709 5.15625 12.0898L5.15625 13.4375C5.15625 13.8281 5.36133 14.0918 5.75195 14.1895L7.33398 14.5508C7.41211 14.8047 7.50977 15.0586 7.62695 15.293L6.78711 16.6699C6.5625 16.9824 6.60156 17.3633 6.875 17.6367L7.83203 18.584C8.10547 18.8574 8.4668 18.8965 8.7793 18.6719L10.166 17.8223C10.3906 17.9297 10.6445 18.0273 10.9082 18.125L11.2891 19.6973C11.3672 20.0879 11.6504 20.3125 12.0215 20.3125L13.4082 20.3125C13.7891 20.3125 14.0625 20.0879 14.1504 19.6973L14.5215 18.125C14.7852 18.0273 15.0488 17.9297 15.2637 17.8223L16.6602 18.6719C16.9629 18.8965 17.334 18.8574 17.5977 18.584L18.5547 17.6367C18.8281 17.3633 18.877 16.9824 18.6426 16.6699L17.8027 15.293C17.9199 15.0586 18.0078 14.8047 18.0957 14.5508L19.6777 14.1895C20.0684 14.0918 20.2832 13.8281 20.2832 13.4375L20.2832 12.0898C20.2832 11.709 20.0684 11.4355 19.6777 11.3477L18.1055 10.9668C18.0078 10.6934 17.9004 10.4395 17.8125 10.2246L18.6621 8.83789C18.877 8.51562 18.8477 8.16406 18.5742 7.88086L17.5977 6.92383C17.334 6.66992 17.002 6.62109 16.6699 6.81641L15.2637 7.68555C15.0488 7.58789 14.7949 7.4707 14.5215 7.38281L14.1504 5.79102C14.0625 5.40039 13.7891 5.18555 13.4082 5.18555ZM15.3027 12.7344C15.3027 14.1602 14.1406 15.332 12.7246 15.332C11.2988 15.332 10.1367 14.1602 10.1367 12.7344C10.1367 11.3281 11.2988 10.166 12.7246 10.166C14.1406 10.166 15.3027 11.3281 15.3027 12.7344Z" fill="#ff453a"/>
 </g>
</svg>
